…
returns <- av %>%
  pivot_longer(cols = starts_with("Return"), 
               names_to = "Time", 
               values_to = "Return") %>%
  mutate(Time = parse_number(Time)) %>%
  select(URL, Time, Return)
 
print(deaths)

## # A tibble: 865 × 3
##    URL                                                 Time Death
##    <chr>                                              <dbl> <chr>
##  1 http://marvel.wikia.com/Henry_Pym_(Earth-616)          1 "YES"
##  2 http://marvel.wikia.com/Henry_Pym_(Earth-616)          2 ""   
##  3 http://marvel.wikia.com/Henry_Pym_(Earth-616)          3 ""   
##  4 http://marvel.wikia.com/Henry_Pym_(Earth-616)          4 ""   
##  5 http://marvel.wikia.com/Henry_Pym_(Earth-616)          5 ""   
##  6 http://marvel.wikia.com/Janet_van_Dyne_(Earth-616)     1 "YES"
##  7 http://marvel.wikia.com/Janet_van_Dyne_(Earth-616)     2 ""   
##  8 http://marvel.wikia.com/Janet_van_Dyne_(Earth-616)     3 ""   
##  9 http://marvel.wikia.com/Janet_van_Dyne_(Earth-616)     4 ""   
## 10 http://marvel.wikia.com/Janet_van_Dyne_(Earth-616)     5 ""   
## # ℹ 855 more rows

print(returns)

## # A tibble: 865 × 3
##    URL                                                 Time Return
##    <chr>                                              <dbl> <chr> 
##  1 http://marvel.wikia.com/Henry_Pym_(Earth-616)          1 "NO"  
##  2 http://marvel.wikia.com/Henry_Pym_(Earth-616)          2 ""    
##  3 http://marvel.wikia.com/Henry_Pym_(Earth-616)          3 ""    
##  4 http://marvel.wikia.com/Henry_Pym_(Earth-616)          4 ""    
##  5 http://marvel.wikia.com/Henry_Pym_(Earth-616)          5 ""    
##  6 http://marvel.wikia.com/Janet_van_Dyne_(Earth-616)     1 "YES" 
##  7 http://marvel.wikia.com/Janet_van_Dyne_(Earth-616)     2 ""    
##  8 http://marvel.wikia.com/Janet_van_Dyne_(Earth-616)     3 ""    
##  9 http://marvel.wikia.com/Janet_van_Dyne_(Earth-616)     4 ""    
## 10 http://marvel.wikia.com/Janet_van_Dyne_(Earth-616)     5 ""    
## # ℹ 855 more rows
…
